Game of Life (GPU implementation)
Starting Simulation
Health Status at Size 2 after 10 Generations
0  0  
0  0  
Time: 260669ms

Health Status at Size 4 after 10 Generations
1  1  1  0  
1  0  0  1  
1  0  0  1  
0  1  1  1  
Time: 566ms

Health Status at Size 8 after 10 Generations
0  0  0  0  1  1  0  0  
0  0  1  0  0  0  1  0  
0  0  1  0  0  1  0  0  
0  0  0  1  1  0  0  0  
0  0  0  0  0  0  0  0  
0  0  0  0  0  1  0  0  
0  0  0  0  0  1  0  0  
0  0  0  0  0  1  0  0  
Time: 659ms

Health Status at Size 16 after 10 Generations
0  0  0  0  0  1  0  0  0  0  1  0  0  1  0  0  
0  0  0  1  1  0  1  0  0  1  0  0  0  0  0  0  
0  0  1  0  0  0  0  0  0  0  1  0  0  1  0  0  
1  0  0  0  0  0  0  1  0  0  0  1  1  0  0  0  
1  1  0  1  0  0  1  0  1  0  0  0  0  0  0  0  
1  0  0  0  1  1  0  1  1  1  0  0  0  0  0  0  
0  1  1  1  1  0  0  0  1  1  0  0  0  0  0  0  
0  0  0  1  0  0  0  0  0  0  0  0  0  0  0  0  
0  0  0  0  0  0  0  0  0  0  0  0  0  0  0  0  
0  0  0  0  0  0  0  0  0  0  0  0  0  0  0  0  
0  0  0  0  0  0  0  0  0  0  0  0  0  0  0  0  
0  0  0  0  0  0  0  0  0  0  0  0  0  0  0  0  
0  0  0  0  0  0  0  0  0  0  0  0  0  0  0  0  
1  1  0  0  0  0  0  0  0  0  0  0  0  0  0  0  
1  1  0  0  0  0  0  0  0  0  0  0  0  0  0  0  
0  0  0  0  0  0  0  0  0  0  0  0  0  0  0  0  
Time: 921ms

Health Status at Size 32 after 10 Generations
0  0  0  0  0  0  0  0  0  0  0  0  0  0  0  0  1  0  0  0  0  0  0  0  0  0  0  0  0  0  0  0  
0  0  0  0  0  0  0  0  0  1  0  0  0  0  0  0  1  0  0  0  1  1  0  0  0  0  0  0  0  0  0  0  
0  0  0  0  0  0  0  0  1  0  1  0  0  0  0  1  0  0  0  0  0  0  0  0  0  0  0  0  0  0  0  0  
1  1  0  0  0  0  0  0  0  0  1  0  1  1  0  0  1  1  0  0  1  0  1  0  0  0  0  0  0  0  0  0  
0  0  1  0  0  0  0  0  0  0  0  1  1  1  0  0  0  0  0  0  1  0  1  1  0  1  0  0  0  0  0  0  
0  0  0  0  0  0  0  0  0  1  1  0  0  0  0  0  0  0  0  0  1  0  0  0  0  0  0  1  0  0  0  0  
1  0  0  0  0  0  0  0  0  0  1  1  0  0  0  0  0  0  0  0  0  0  0  1  0  0  0  0  1  0  0  0  
1  1  0  0  0  0  0  0  0  0  0  1  0  0  0  0  0  1  1  0  0  0  1  0  0  0  0  0  1  0  0  0  
1  0  1  0  0  0  1  0  0  0  0  0  0  0  1  1  0  1  1  0  0  0  0  1  0  0  0  0  1  0  0  0  
0  1  1  1  0  0  1  0  0  0  1  0  0  1  1  0  0  0  0  0  0  0  0  1  0  0  0  0  0  0  0  0  
0  1  1  0  0  0  1  0  0  0  0  0  1  1  0  0  0  0  0  0  0  0  0  0  0  1  1  0  0  0  0  0  
0  0  0  0  0  0  1  1  0  0  0  0  0  1  0  0  0  0  0  0  0  0  0  0  0  1  0  1  0  1  0  1  
0  0  0  0  0  0  0  1  0  0  0  0  1  0  0  0  0  0  0  0  0  0  1  1  0  0  1  0  0  1  0  0  
0  0  0  0  0  0  0  0  0  0  1  0  0  0  0  0  0  0  0  0  1  0  1  1  0  0  1  0  1  1  0  0  
0  0  0  0  0  0  0  0  0  0  0  0  0  0  0  0  0  0  0  1  1  0  0  0  0  0  0  1  0  0  0  0  
0  0  0  0  0  0  0  0  0  0  0  0  0  0  0  0  0  0  0  1  1  0  0  1  0  0  0  0  0  0  0  0  
0  1  1  0  1  0  1  1  0  0  0  0  0  0  0  0  0  0  0  1  1  0  1  0  0  0  0  0  0  0  0  0  
0  1  1  0  0  0  1  0  0  0  0  0  0  0  0  0  0  0  0  0  1  1  0  0  0  0  0  0  0  0  1  1  
1  0  1  0  0  0  1  0  0  0  0  0  0  1  1  0  0  0  0  1  1  1  0  0  0  0  0  0  0  1  1  1  
1  1  0  0  1  1  0  0  1  0  0  0  1  0  0  1  0  0  0  1  1  0  0  0  0  0  0  1  0  0  0  0  
0  1  0  1  0  0  0  1  0  1  0  0  1  0  0  1  1  0  0  1  1  0  0  0  0  0  0  1  1  0  0  0  
0  0  0  1  0  0  1  0  0  0  1  0  0  1  0  1  0  0  0  0  1  0  0  0  0  0  0  1  0  0  0  0  
0  0  0  0  0  0  0  1  0  1  0  0  0  1  1  1  1  0  0  0  0  1  0  0  0  0  0  0  0  0  0  0  
0  0  0  0  0  0  0  0  1  0  0  0  1  0  0  0  0  0  0  1  1  0  0  0  0  0  0  0  0  0  0  0  
1  1  0  0  0  0  0  0  0  0  0  0  1  1  1  0  0  0  0  0  0  0  0  0  0  0  0  0  0  0  0  0  
1  1  0  0  0  0  0  0  0  0  0  0  1  0  0  0  1  0  0  0  0  0  0  0  0  0  0  0  0  0  0  0  
0  0  0  0  0  0  0  0  0  0  0  0  0  1  1  0  1  0  0  0  0  0  0  0  0  0  1  1  0  0  0  0  
0  0  0  0  0  0  0  0  0  0  0  0  1  1  1  0  1  0  0  0  0  0  0  0  0  0  1  0  0  0  0  0  
0  0  1  0  0  0  0  0  0  0  1  0  0  0  0  0  0  0  0  1  1  1  0  0  0  0  0  1  1  0  0  0  
0  1  1  0  1  0  0  0  0  1  0  0  1  0  0  0  1  1  0  1  1  0  0  0  0  0  0  0  0  1  0  0  
0  1  1  0  0  1  0  0  0  0  1  0  1  0  0  0  1  1  0  1  0  1  0  1  1  1  0  0  0  1  0  0  
0  0  0  1  0  1  0  0  0  0  0  0  0  0  0  0  0  0  0  0  0  0  0  0  0  0  1  0  0  1  0  0  
Time: 1639ms

Ending Simulation
