

Sun 2019/08/11 20:52:56  [INFO] Logger initialized.
20:52:56  [INFO]    Game Of Life (MASS Implementation)
Starting Simulation
Health Status at Size 2 after 10 Generations
0  0  
0  0  
MASS time 1191

Health Status at Size 4 after 10 Generations
0  0  0  0  
0  0  0  0  
0  0  0  0  
0  0  0  0  
MASS time 1088

Health Status at Size 8 after 10 Generations
0  0  0  0  0  0  0  0  
0  0  0  0  0  0  0  0  
0  0  0  0  0  0  0  0  
0  0  0  0  0  0  0  0  
0  0  0  0  0  0  0  0  
0  0  0  0  0  0  0  0  
0  0  0  0  0  0  0  0  
0  0  0  0  0  0  0  0  
MASS time 1132

Health Status at Size 16 after 10 Generations
0  0  0  0  0  0  0  0  0  0  0  0  0  0  0  0  
0  0  0  0  0  1  1  0  1  1  1  0  0  0  0  0  
0  0  0  0  1  1  1  1  1  0  1  1  0  0  0  0  
0  0  0  0  0  0  0  1  0  0  1  1  0  0  0  0  
0  0  1  1  1  0  0  0  1  1  1  0  0  0  0  0  
0  0  1  1  0  1  0  1  0  0  0  0  0  0  0  0  
0  1  0  0  0  0  1  0  0  0  0  0  0  0  0  0  
1  1  1  0  1  0  0  0  0  0  0  0  0  0  0  1  
0  0  0  0  1  1  0  0  0  0  0  0  0  0  0  1  
0  0  0  0  1  1  0  0  0  0  0  0  0  0  0  0  
0  0  0  0  1  0  0  0  0  0  0  0  0  0  0  0  
0  0  1  1  0  0  0  0  0  0  0  0  0  0  0  1  
0  1  1  1  0  0  0  0  0  0  0  0  0  0  1  1  
0  0  0  0  0  0  0  0  0  0  0  0  0  0  1  0  
1  0  0  0  0  0  0  0  0  0  0  0  0  0  1  1  
0  0  0  0  0  0  0  0  0  0  0  0  0  0  0  0  
MASS time 1384

Health Status at Size 32 after 10 Generations
0  1  0  0  0  0  0  0  0  0  0  0  0  0  0  0  0  0  1  0  1  1  1  0  0  0  0  0  0  0  0  0  
1  0  1  0  0  0  0  0  0  0  0  0  0  0  0  0  0  0  1  0  0  0  0  1  0  0  0  0  0  0  0  0  
0  0  1  0  0  0  0  0  0  0  0  0  0  0  0  0  0  0  1  0  0  1  0  1  1  0  0  0  0  0  0  0  
0  1  0  0  0  0  0  1  1  0  0  0  0  0  0  0  0  0  0  1  1  0  1  0  1  0  0  0  0  0  0  0  
0  0  0  0  0  0  1  0  0  1  0  0  0  0  0  0  0  0  0  0  0  0  1  0  0  1  0  0  0  0  0  0  
0  0  0  0  0  0  0  1  1  0  0  0  0  0  0  0  0  0  0  0  0  0  1  0  0  0  0  0  0  0  0  0  
0  0  0  0  0  0  0  0  0  0  0  0  0  0  0  0  0  0  0  1  0  0  0  0  0  0  0  0  0  0  0  0  
0  0  0  0  0  0  0  0  0  0  0  0  0  0  0  0  0  0  0  0  0  0  1  0  0  0  0  0  0  0  0  0  
0  0  0  0  0  0  0  0  0  0  1  1  1  0  0  0  0  0  0  0  0  0  0  0  0  0  0  0  0  0  0  0  
0  0  0  0  0  0  0  0  0  0  0  0  0  0  0  0  0  0  0  0  0  0  0  0  0  0  0  0  0  0  1  1  
1  0  0  0  0  0  0  0  1  0  0  0  1  0  0  0  0  0  0  0  0  0  0  0  0  0  0  0  0  0  1  1  
0  1  1  0  0  0  0  0  0  0  0  0  0  0  0  0  0  1  1  0  0  0  0  0  0  1  1  0  0  0  0  0  
0  1  0  1  0  0  0  0  1  0  1  0  0  0  0  0  1  0  0  1  0  0  0  0  0  1  0  1  0  0  0  1  
1  0  1  0  0  0  0  0  1  0  1  0  0  0  0  1  0  0  1  0  0  0  0  0  0  0  0  0  0  0  0  1  
0  0  0  0  0  0  0  0  1  1  0  0  0  0  0  0  1  0  1  0  0  0  0  0  0  0  0  1  0  0  0  0  
0  1  1  0  1  1  0  0  0  1  0  0  0  0  0  0  1  1  0  0  0  0  1  0  0  0  1  1  1  0  0  0  
0  0  0  1  0  0  1  1  0  0  0  0  0  0  0  0  1  0  0  0  0  0  0  1  1  1  1  0  1  0  0  0  
0  0  1  1  0  0  0  1  1  1  0  0  0  0  1  0  0  1  0  0  0  0  0  1  1  0  1  0  0  1  0  0  
0  0  0  1  0  0  0  0  0  0  0  0  0  0  1  0  1  0  0  0  0  0  0  0  1  0  0  1  1  1  0  0  
1  1  0  0  0  0  0  0  0  0  0  0  0  0  0  1  0  0  0  0  0  0  0  1  1  1  0  1  0  1  0  1  
1  1  0  0  0  0  0  0  0  0  0  0  0  0  0  0  0  0  0  0  0  0  0  0  1  0  0  0  0  0  0  0  
1  0  1  0  0  0  0  0  0  0  1  0  0  0  0  0  1  0  0  0  0  0  0  0  0  0  0  0  0  0  0  0  
0  1  0  1  1  0  0  0  1  1  1  0  0  0  0  0  0  0  0  0  0  0  1  1  0  1  0  0  0  0  0  1  
0  0  0  1  1  0  0  0  1  0  0  1  1  0  0  0  1  0  0  0  0  0  0  0  0  0  0  0  0  0  0  1  
1  1  1  1  0  1  0  0  0  1  0  1  0  0  0  0  0  0  0  0  1  0  0  0  1  1  1  1  0  0  0  0  
0  0  0  0  1  1  1  0  0  1  1  1  0  0  0  0  0  0  0  1  0  0  1  0  1  1  1  1  1  0  0  0  
0  0  0  0  1  1  1  0  1  0  1  0  0  0  0  0  0  0  0  1  1  1  0  0  0  0  0  1  0  0  0  0  
0  0  0  0  0  0  0  0  1  1  0  0  0  0  0  0  0  0  0  0  0  0  0  0  0  0  0  0  0  0  0  0  
0  0  0  0  0  0  0  0  0  0  0  0  0  0  0  0  0  0  0  0  0  0  0  0  0  0  0  0  0  0  0  0  
0  0  0  0  0  0  0  0  0  0  0  0  0  0  0  0  0  0  0  0  0  0  0  0  0  1  1  1  0  0  0  0  
0  0  0  0  0  0  0  0  0  0  0  0  0  0  0  0  0  0  0  0  0  0  0  0  0  1  0  1  0  0  0  0  
0  0  0  0  0  0  0  0  0  0  0  0  0  0  0  0  0  0  0  0  0  0  0  0  0  1  1  1  0  0  0  0  
MASS time 1416

Ending Simulation

Mon 2023/08/21 14:12:54  [INFO] Logger initialized.
14:12:54  [INFO]    Game Of Life (MASS Implementation)
Health Status at Size 2 after 10 Generations
0  0  
0  0  
MASS time 303

14:12:54  [ERROR]   MASS Cuda Util: invalid configuration argument in src/DeviceConfig.cu at line 156

