Agents
Agent ID: 0 starting Point: 57 ending Point: 465 Route: 857 856 800 799 743 684 683 627 568 509 450 391 332 273 214 155 154 156 158 102 101 103 105 107 109 111 
Agent ID: 1 starting Point: 598 ending Point: 466 Route: 917 919 921 923 925 927 929 931 933 935 937 939 942 1001 1060 1119 
Agent ID: 2 starting Point: 29 ending Point: 465 Route: 857 856 800 799 743 684 683 627 568 509 450 391 332 331 333 335 337 339 341 285 284 228 227 229 231 175 174 117 58 
Agent ID: 3 starting Point: 88 ending Point: 496 Route: 918 859 800 799 743 684 683 627 568 509 450 391 332 331 333 335 337 339 341 285 284 228 227 229 231 175 
Agent ID: 4 starting Point: 887 ending Point: 434 Route: 854 856 859 918 977 1036 1095 1154 1213 1271 1274 1333 1392 1451 1510 1569 1628 1687 
Agent ID: 5 starting Point: 660 ending Point: 465 Route: 913 911 909 907 905 903 901 899 897 895 893 891 889 887 888 944 945 1004 1063 1122 1181 1240 
Agent ID: 6 starting Point: 1 ending Point: 464 Route: 855 796 737 678 619 560 501 442 383 324 265 206 203 201 143 140 138 136 134 132 130 72 69 11 8 6 4 2 
Agent ID: 7 starting Point: 38 ending Point: 464 Route: 855 796 737 678 619 560 501 442 383 324 265 206 203 145 86 83 81 79 77 75 
Agent ID: 8 starting Point: 751 ending Point: 464 Route: 911 909 907 905 903 901 899 897 895 893 891 889 887 888 947 1006 1065 1124 1183 1242 1301 1360 1419 
Agent ID: 9 starting Point: 179 ending Point: 496 Route: 918 859 800 799 743 684 683 627 568 509 450 391 332 331 333 335 337 339 341 343 345 347 349 351 
Agent ID: 10 starting Point: 511 ending Point: 434 Route: 852 853 909 907 905 903 901 899 897 895 893 891 889 887 888 947 
Agent ID: 11 starting Point: 895 ending Point: 465 Route: 915 917 919 922 981 1040 1099 1158 1217 1276 1335 1394 1453 1511 1514 1573 1631 1633 1635 1637 1640 1699 1734 1735 
Agent ID: 12 starting Point: 847 ending Point: 494 Route: 970 968 966 964 965 1021 1019 1017 1018 1077 1136 1195 1254 1313 1372 1431 1490 1549 1608 
Agent ID: 13 starting Point: 857 ending Point: 495 Route: 974 977 1036 1095 1154 1213 1271 1274 1333 1392 1451 1510 1569 1628 
Agent ID: 14 starting Point: 690 ending Point: 464 Route: 911 909 907 905 903 901 899 897 895 893 891 889 887 888 944 945 1004 1063 1122 1181 1240 1299 
Agent ID: 15 starting Point: 20 ending Point: 435 Route: 856 800 799 743 684 683 627 568 509 450 391 332 273 214 155 154 156 158 102 43 40 
Agent ID: 16 starting Point: 43 ending Point: 465 Route: 857 854 796 737 678 619 560 501 442 383 324 265 206 203 145 86 
Agent ID: 17 starting Point: 510 ending Point: 434 Route: 852 853 909 907 905 903 901 899 897 895 893 891 889 887 888 944 945 
Agent ID: 18 starting Point: 856 ending Point: 465 Route: 915 918 977 1036 1095 1154 1213 1272 1331 1390 1449 1508 1567 1626 
Agent ID: 19 starting Point: 750 ending Point: 464 Route: 911 909 907 905 903 901 899 897 895 893 891 889 887 888 947 1006 1065 1124 1183 1242 1301 1360 1419 1475 
Agent ID: 20 starting Point: 211 ending Point: 464 Route: 855 796 737 734 732 730 728 726 668 665 607 604 546 487 484 426 423 421 419 417 415 
Agent ID: 21 starting Point: 885 ending Point: 435 Route: 856 859 918 977 1036 1095 1154 1213 1272 1331 1390 1449 1508 1567 1623 1624 1683 
Agent ID: 22 starting Point: 873 ending Point: 496 Route: 974 972 970 968 966 964 965 1021 1019 1017 1018 1077 1136 1195 1254 1313 1372 1431 1490 1549 1608 1664 1665 1716 1715 1714 
Agent ID: 23 starting Point: 390 ending Point: 495 Route: 916 913 911 909 851 848 846 844 842 840 838 836 834 832 830 772 769 767 
Agent ID: 24 starting Point: 881 ending Point: 466 Route: 915 913 914 973 1032 1088 1089 1148 1207 1263 1264 1320 1321 1380 1439 1498 1557 1616 1675 
Agent ID: 25 starting Point: 720 ending Point: 436 Route: 856 854 852 853 909 907 905 903 901 899 897 895 893 891 889 887 888 944 945 1004 1063 1122 1181 1240 1299 1358 
Agent ID: 26 starting Point: 3 ending Point: 464 Route: 855 796 737 678 619 560 501 442 383 324 265 206 203 201 143 140 138 136 134 132 130 72 69 11 8 6 
Agent ID: 27 starting Point: 628 ending Point: 436 Route: 858 860 862 864 866 868 871 929 931 933 935 937 939 942 1001 1060 1119 1178 
Agent ID: 28 starting Point: 358 ending Point: 496 Route: 918 859 800 799 743 684 683 685 687 689 691 693 695 697 699 701 703 
Agent ID: 29 starting Point: 149 ending Point: 435 Route: 856 800 799 743 684 683 627 568 509 450 391 332 331 333 335 337 339 341 285 284 286 288 290 292 
Agent ID: 30 starting Point: 41 ending Point: 465 Route: 857 854 796 737 678 619 560 501 442 383 324 265 206 203 145 86 83 81 
Agent ID: 31 starting Point: 780 ending Point: 436 Route: 856 854 852 853 909 907 905 903 901 899 897 895 893 891 889 887 888 947 1006 1065 1124 1183 1242 1301 1360 1419 1475 1476 
Agent ID: 32 starting Point: 151 ending Point: 466 Route: 859 800 797 739 680 621 562 503 444 441 439 437 435 433 431 373 370 368 366 364 362 360 302 299 297 
Agent ID: 33 starting Point: 842 ending Point: 494 Route: 970 968 966 964 965 1021 1019 1017 1015 1013 1011 1009 1010 1069 1128 1184 1185 1244 1303 1362 1421 1480 1539 1598 
Agent ID: 34 starting Point: 298 ending Point: 465 Route: 857 856 800 799 743 684 683 685 687 689 691 635 634 636 580 579 581 583 585 
Agent ID: 35 starting Point: 61 ending Point: 466 Route: 859 800 797 739 680 621 562 503 444 385 326 267 208 205 203 201 143 140 138 136 134 132 130 128 126 124 122 120 
Agent ID: 36 starting Point: 238 ending Point: 494 Route: 914 855 796 737 678 619 560 501 442 441 443 445 447 449 451 453 455 457 459 461 463 465 467 
Agent ID: 37 starting Point: 863 ending Point: 466 Route: 917 919 922 981 1040 1099 1158 1217 1276 1335 1394 1453 1511 1514 1573 1631 1633 1635 1637 1640 
Agent ID: 38 starting Point: 871 ending Point: 435 Route: 854 852 853 909 907 905 903 901 899 897 895 893 891 892 951 1010 1069 1128 1184 1185 1244 1303 1362 1421 1480 1539 1595 1593 1594 1653 1711 
Agent ID: 39 starting Point: 12 ending Point: 435 Route: 854 796 737 678 619 560 501 442 383 324 265 206 203 145 86 83 25 
Agent ID: 40 starting Point: 628 ending Point: 495 Route: 974 976 978 980 982 984 986 989 1047 1050 1108 1110 1113 1172 1230 1232 1234 
Agent ID: 41 starting Point: 300 ending Point: 466 Route: 859 800 797 739 736 734 732 730 728 726 668 665 663 661 659 657 655 653 651 649 591 
Agent ID: 42 starting Point: 389 ending Point: 465 Route: 857 856 858 860 804 803 805 807 809 811 813 815 817 761 760 762 764 
Agent ID: 43 starting Point: 211 ending Point: 435 Route: 854 796 737 734 732 730 728 726 668 665 607 604 546 487 484 426 423 421 419 417 415 
Agent ID: 44 starting Point: 50 ending Point: 436 Route: 800 799 743 684 683 627 568 509 450 391 332 273 214 155 154 156 158 102 99 
Agent ID: 45 starting Point: 509 ending Point: 466 Route: 917 919 921 923 925 927 929 931 933 935 937 939 941 943 
Agent ID: 46 starting Point: 874 ending Point: 464 Route: 911 909 907 905 903 901 899 900 959 1018 1077 1136 1195 1254 1313 1372 1431 1490 1549 1608 1664 1665 1716 1715 
Agent ID: 47 starting Point: 865 ending Point: 495 Route: 974 976 978 980 982 984 986 989 1048 1107 1165 1168 1227 1286 1345 1403 1406 1464 1467 1526 1585 1644 
Agent ID: 48 starting Point: 15 ending Point: 465 Route: 857 854 796 737 678 619 560 501 442 383 324 265 206 205 149 90 31 
Agent ID: 49 starting Point: 778 ending Point: 464 Route: 913 915 917 919 921 923 925 927 929 932 991 1050 1108 1110 1113 1172 1230 1232 1235 1293 1296 1355 1414 1473 
Agent ID: 50 starting Point: 481 ending Point: 494 Route: 914 911 909 907 905 903 901 899 897 895 893 891 889 887 888 
Agent ID: 51 starting Point: 331 ending Point: 495 Route: 916 857 854 796 737 734 732 730 728 726 668 665 663 661 659 657 655 653 651 
Agent ID: 52 starting Point: 11 ending Point: 464 Route: 855 796 737 678 619 560 501 442 383 324 265 206 203 145 86 83 25 22 
Agent ID: 53 starting Point: 862 ending Point: 466 Route: 917 919 922 981 1040 1099 1158 1217 1276 1335 1394 1453 1511 1514 1573 1631 1633 1635 1638 
Agent ID: 54 starting Point: 877 ending Point: 434 Route: 852 853 909 907 905 903 901 899 900 959 1018 1077 1136 1195 1254 1313 1372 1431 1490 1549 1608 1667 
Agent ID: 55 starting Point: 892 ending Point: 495 Route: 974 976 978 981 1040 1099 1158 1217 1276 1335 1394 1453 1511 1514 1573 1631 1633 1635 1638 1697 
Agent ID: 56 starting Point: 882 ending Point: 496 Route: 974 972 973 1032 1088 1089 1148 1207 1266 1325 1384 1443 1502 1561 1617 1618 1677 
Agent ID: 57 starting Point: 880 ending Point: 435 Route: 854 855 914 973 1032 1088 1089 1148 1207 1263 1264 1320 1321 1380 1439 1498 1557 1613 1614 1673 
Agent ID: 58 starting Point: 898 ending Point: 434 Route: 854 856 858 860 862 864 866 868 871 929 932 991 1050 1108 1110 1113 1172 1230 1233 1292 1351 1409 1412 1471 1530 1589 1647 1650 1709 
Agent ID: 59 starting Point: 211 ending Point: 435 Route: 854 796 737 734 732 730 728 726 668 665 607 604 546 487 484 426 423 421 419 417 415 
Agent ID: 60 starting Point: 719 ending Point: 435 Route: 856 858 860 862 864 866 868 871 929 931 933 935 937 939 942 1001 1060 1119 1178 1236 1238 1297 1356 
Agent ID: 61 starting Point: 39 ending Point: 434 Route: 796 737 678 619 560 501 442 383 324 265 206 203 145 86 83 81 79 77 
Agent ID: 62 starting Point: 421 ending Point: 436 Route: 800 797 795 793 791 789 787 785 783 781 779 777 775 773 774 830 828 
Agent ID: 63 starting Point: 897 ending Point: 495 Route: 974 976 978 980 982 984 986 989 1048 1107 1165 1168 1227 1286 1345 1403 1406 1464 1467 1526 1585 1644 1702 1704 1707 
Agent ID: 64 starting Point: 882 ending Point: 494 Route: 973 1032 1088 1089 1148 1207 1266 1325 1384 1443 1502 1561 1617 1618 1677 
Agent ID: 65 starting Point: 149 ending Point: 495 Route: 916 857 856 800 799 743 684 683 627 568 509 450 391 332 331 333 335 337 339 341 285 284 286 288 290 292 
Agent ID: 66 starting Point: 778 ending Point: 464 Route: 913 915 917 919 921 923 925 927 929 932 991 1050 1108 1110 1113 1172 1230 1232 1235 1293 1296 1355 1414 1473 
Agent ID: 67 starting Point: 810 ending Point: 464 Route: 911 909 907 905 903 901 899 897 895 893 891 892 951 1010 1069 1128 1184 1185 1244 1303 1362 1421 1480 1539 1595 1593 
Agent ID: 68 starting Point: 35 ending Point: 436 Route: 800 797 739 680 621 562 503 444 385 326 267 208 205 203 201 143 140 138 136 134 132 130 72 69 
Agent ID: 69 starting Point: 541 ending Point: 496 Route: 974 972 970 968 966 964 965 1021 1019 1017 1015 1013 1011 1009 1007 1005 1006 
Agent ID: 70 starting Point: 44 ending Point: 464 Route: 855 796 737 678 619 560 501 442 383 324 265 206 203 145 86 85 
Agent ID: 71 starting Point: 845 ending Point: 466 Route: 915 913 911 909 907 905 903 901 899 900 959 1018 1077 1136 1195 1254 1313 1372 1431 1490 1549 1605 1603 1604 
Agent ID: 72 starting Point: 894 ending Point: 494 Route: 972 974 976 978 981 1040 1099 1158 1217 1276 1335 1394 1453 1511 1514 1573 1631 1633 1635 1637 1640 1699 1734 
Agent ID: 73 starting Point: 720 ending Point: 495 Route: 972 970 968 966 964 965 1021 1019 1017 1015 1013 1011 1009 1007 1005 1003 1004 1063 1122 1181 1240 1299 1358 
Agent ID: 74 starting Point: 539 ending Point: 435 Route: 856 858 860 862 864 866 868 871 929 931 933 935 937 939 941 943 1002 
Agent ID: 75 starting Point: 660 ending Point: 435 Route: 854 852 853 909 907 905 903 901 899 897 895 893 891 889 887 888 944 945 1004 1063 1122 1181 1240 
Agent ID: 76 starting Point: 43 ending Point: 496 Route: 918 859 800 797 739 680 621 562 503 444 385 326 267 208 149 90 87 85 
Agent ID: 77 starting Point: 331 ending Point: 496 Route: 918 859 800 797 739 736 734 732 730 728 726 668 665 663 661 659 657 655 653 651 
Agent ID: 78 starting Point: 391 ending Point: 436 Route: 800 797 795 793 791 789 787 785 783 781 779 721 718 716 714 712 713 769 
Agent ID: 79 starting Point: 779 ending Point: 495 Route: 974 976 978 980 982 984 986 989 1047 1050 1108 1110 1113 1172 1230 1232 1235 1293 1296 1355 1414 1473 1531 
Agent ID: 80 starting Point: 27 ending Point: 434 Route: 796 737 678 619 560 501 442 383 324 265 206 205 207 209 211 155 154 156 158 102 101 103 105 49 48 50 52 
Agent ID: 81 starting Point: 328 ending Point: 435 Route: 856 800 799 743 684 683 685 687 689 691 693 695 697 699 701 645 644 
Agent ID: 82 starting Point: 28 ending Point: 434 Route: 796 737 678 619 560 501 442 383 324 265 206 205 207 209 211 155 154 156 158 102 101 103 105 49 48 50 52 54 
Agent ID: 83 starting Point: 39 ending Point: 464 Route: 855 796 737 678 619 560 501 442 383 324 265 206 203 145 86 83 81 79 77 
Agent ID: 84 starting Point: 56 ending Point: 464 Route: 855 796 737 678 619 560 501 442 383 324 265 206 205 207 209 211 155 154 156 158 102 101 103 105 107 109 
Agent ID: 85 starting Point: 361 ending Point: 496 Route: 918 859 800 797 795 793 791 789 787 785 783 781 779 721 718 716 714 712 710 
Agent ID: 86 starting Point: 569 ending Point: 496 Route: 918 917 919 921 923 925 927 929 931 933 935 937 939 942 1001 1060 1118 
Agent ID: 87 starting Point: 39 ending Point: 465 Route: 857 854 796 737 678 619 560 501 442 383 324 265 206 203 145 86 83 81 79 77 
Agent ID: 88 starting Point: 853 ending Point: 496 Route: 974 972 973 1032 1088 1089 1148 1207 1266 1325 1384 1443 1502 1561 1620 
Agent ID: 89 starting Point: 898 ending Point: 464 Route: 913 915 917 919 921 923 925 927 929 932 991 1050 1108 1110 1113 1172 1230 1233 1292 1351 1409 1412 1471 1530 1589 1647 1650 1709 